﻿Instance,Submit Date (UTC),First,Last,Email,Phone,Lang Profile,Posn,Ext Appl,Diet,OT,PT,SW,SLP,SiteNoPref,EBH,SVH,FT,PT.1,PT.2,PT.3,PT.4,PT.5,PT.6,PT.7,PT.8,PT.9,Stat-NoPref,CPR,MPC,College,Exp1FromDt,Exp1ToDT,EXP1Company,EXP1Title,EXP1Resp,EXP2FrmDt,EXP2ToDt,EXP2Company,EXP2Title,EXP2Resp,EXP3FrmDt,EXP3ToDT,EXP3Company,EXP3Title,EXP3Resp,EXPAddlInfo,ED1FrmDt,ED1ToDT,ED1Degree,ED1School,ED1Loc,ED2FrmDT,ED2ToDT,ED2Degree,ED2School,ED2LOc,EDAddlInfo,Ref1Name,Ref1Title,Ref1Org,Ref1Contact,Ref2Name,Ref2Title,Ref2Org,Ref2Contact,Ref3Name,Ref3Title,Ref3Org,Ref3Contact,CVAttached,EE ID,Date,Time
App-AH-M.E.-6,2020-06-04 17:22,Blake ,Lively,Blake@actor.com,613-501-8501,E,Speech/Lang Pathologist,FALSE,FALSE,FALSE,FALSE,FALSE,TRUE,TRUE,,,1,4,3,5,1,10,99,5,4,2,FALSE,No,Yes,College of Audiologists and Speech Language Pathologists of Ontario,2018-05-01,2020-06-04,Bruyere Continuing Care (both Saint Vincent Hospital and Elizabeth Bruyere Hospital),speech-language pathologist,"As an SLP working in both inpatient and outpatient, I am responsible for evaluation and treatment of speech, language, cognition, and swallowing disorders in adults. ",2019-06-01,2020-06-04,Zanon Speech Therapy,speech-language pathologist,#NAME?,,,,,,,,,,,,,,,,,,,,,,,,,,,,,,,,,
App-AH-E.A.-7,2020-06-04 18:23,Michael,Buble,Michael@actor.com,613-853-4124,B,Speech/Lang Pathologist,FALSE,FALSE,FALSE,FALSE,FALSE,TRUE,FALSE,99,1,1,,,,,,,,,2,FALSE,No,Yes,College of Audiologists and Speech Language Pathologists of Ontario,2001-09-03,2020-06-04,Bruyère Continuing Care,Speech-Language Pathologist,Bilingual speech-language pathologist,,,,,,,,,,,,,,,,,,,,,,,,,,,,,,,,,,,,,,
App-AH-D.L.-8,2020-06-05 1:42,Adam,Sandler,Adam@actor.com,6137623217,E,Physiotherapist,FALSE,FALSE,FALSE,TRUE,FALSE,FALSE,FALSE,1,2,,,,,,,,,,,TRUE,No,Yes,College of Physiotherapists of Ontario,,,,,,,,,,,,,,,,,,,,,,,,,,,,Nada Janjic,Manager of Allied Health,Joseph Brant Hospital,905-632-3737 x5712,Jacob Debruyne,Physiotherapist,Joseph Brant Hospital,905-380-9813,Barbara Hutton,Rehabilitation Coordinator,Joseph Brant Hospital,905-632-3737 x7439,n83BAVggAggA_gwO|Diana_Liu_resume.docx,51559,2020-06-04,21:42:25
App-AH-G.C.-9,2020-06-05 2:12,Adam ,Lambert,adam@singer.com,819-962-7110,B,Occupational Therapist,FALSE,FALSE,TRUE,FALSE,FALSE,FALSE,FALSE,1,99,1,,,,,,,,,2,FALSE,Yes,Yes,College of Occupational Therapists of Ontario,1991-09-03,1996-09-02,Bruyere Continuing Care ,Occupational Therapist ,Traumatic Brain Injury rehab for first 2 years. Following years Slow Stream Stroke Rehab OT.,1996-09-02,2020-06-04,Bruyere Continuing Care,Occupational Therapist ,Day Hospital out patient OT.,,,,,,,,,,,,,,,,,,,,,,,,,,,,,,,,,
App-AH-J.V.-10,2020-06-05 2:52,Ellen,Degeneres,Ellen@comedian.com,613-263-2682,E,Speech/Lang Pathologist,FALSE,FALSE,FALSE,FALSE,FALSE,TRUE,FALSE,1,2,1,99,9,8,7,6,5,4,3,2,FALSE,Yes,Yes,College of Audiologists and Speech Language Pathologists of Ontario,,,,,,,,,,,,,,,,,,,,,,,,,,,,Jennifer Armstrong,Speech-Language Pathologist / Manager,CommuniCare Therapy,613-738-1884 ext. 329 / jarmstrong@communicare.ca,Nathan Crawford,Speech-Language Pathologist,Formerly at Kaymar Rehabilitation Inc.,250-727-4000 ext. 15284 / nathanael.crawford@viha.ca,Stacey Sedore,Speech-Language Pathologist,Hotel Dieu Hospital,613-544-3400 ext. 3647 / sedores@hdh.kari.net,M83BgYgAgAAg_AAQ|Janet_Vu_-_Resume_Bruyere.pdf,51474,2020-06-04,22:52:08
App-AH-M.G.-11,2020-06-05 3:32,Frances,McDormand,Frances@actor.com,6136180779,E,,TRUE,FALSE,FALSE,TRUE,FALSE,FALSE,TRUE,,,1,,,,,,,4,3,2,FALSE,Yes,Yes,College of Physiotherapists of Ontario,2019-07-08,,CBI Health Group,Registered Physiotherapist,"•	Performing initial assessments for Ottawa workers network WSIB patients, Long term disability, MVA patients and private patients",,,,,,,,,,,,,,,,,,,,,,,,,,,,,,,,,,,,,,