﻿First name,Last name,Email address,Employee number,Address 1,City,Apartment #,Province,Postal Code,Current position  number,Classification ,Program,Step rate,Step rate effective date,Seniority Years,Qualified? Yes/No,Site,Language assessment QHR,Modified work tag?,Current FTE,IHA date,Offer accepted Yes/No,New position #,Start date,Current rotation
Ryan ,Reynolds,ryan@actor.com,2,1 Smith Street,Ottawa,345,ON,K1N 5C3,B00202-25,RN,Saint Vincent Hospital,3,24-Jun-19,2.3,Yes,Saint Vincent Hospital,Bilingual,,1,,,,,Day
Blake ,Lively,Blake@actor.com,3,1 Jones Street,Ottawa,,ON,K1N 5C3,B00325-01,RN,Saint Vincent Hospital,4,24-Jun-18,1.234,Yes,Saint Vincent Hospital,Bilingual,,1,,,,,Varies
Michael,Buble,Michael@actor.com,4,1 Blue Street,Ottawa,,ON,K1N 5C3,B00375-01,FSA patient food,Saint Vincent Hospital,5,24-Jun-19,8.98436,Yes,Saint Vincent Hospital,Bilingual,,1,,,,,Night
Adam,Sandler,Adam@actor.com,5,1 Green Street,Ottawa,,ON,K1N 5C3,B00498-03,FSA patient food,Saint Vincent Hospital,5,24-Jun-19,23.98,Yes,Saint Vincent Hospital,Bilingual,,1,,,,,Evening
Adam ,Lambert,adam@singer.com,6,1 Red Street,Ottawa,2B,ON,K1N 5C3,F00119-03,Housekeeping attendant,Elisabeth-Bruyere,5,24-Jun-19,1.54,Yes,Elisabeth-Bruyere,Bilingual,,1,,,,,Day
Ellen,Degeneres,Ellen@comedian.com,7,1 Orange Street,Ottawa,,ON,K1N 5C3,F00181-01,Housekeeping attendant,Elisabeth-Bruyere,5,24-Jun-19,7.54,Yes,Elisabeth-Bruyere,French,TR,1,,,,,Varies
Frances,McDormand,Frances@actor.com,8,1 Black Street,Ottawa,,ON,K1N 5C3,F00122-03,RPN,Elisabeth-Bruyere,5,24-Jun-19,,Yes,Elisabeth-Bruyere,English,,0.6,,,,,Night
Mary,Streep,Mary@actor.com,9,1 White Street,Ottawa,,ON,K1N 5C3,B00169-03,RPN,Elisabeth-Bruyere,5,24-Jun-19,1,Yes,Elisabeth-Bruyere,Bilingual,,0.54,,,,,Evening
June ,Streep,June@actor.com,10,1 Brown Street,Ottawa,,ON,K1N 5C3,M00095-03,RPN,Saint Vincent Hospital,5,24-Jun-19,2,Yes,Saint Vincent Hospital,Bilingual,,1,,,,,Day
Andrew ,McGregor,andrew@programmer.com,11,1 Brown Street,Ottawa,,ON,K1N 5C3,B00202-25,RN,Elisabeth-Bruyere,5,24-Jun-19,3,Yes,Elisabeth-Bruyere,Bilingual,WR,1,,,,,Varies
Debbie ,McGregor,Debbie@retired.com,12,1 Brown Street,Ottawa,,ON,K1N 5C3,B00325-01,RN,Elisabeth-Bruyere,5,24-Jun-19,4,Yes,Elisabeth-Bruyere,Bilingual,,1,,,,,Night
Taz,Test,tsethi@bruyere.org,13,1 Brown Street,Ottawa,,ON,K1N 5C3,B00325-01,HA,Elisabeth-Bruyere,5,24-Jun-19,5,Yes,Elisabeth-Bruyere,English,,1,,,,,Evening
NCA,NCA,nca@bruyere.org,14,1 Brown Street,Ottawa,,ON,K1N 5C3,B00325-01,FSA,Elisabeth-Bruyere,5,24-Jun-19,6,Yes,Elisabeth-Bruyere,Bilingual,,1,,,,,Day
NCB,NCB,ncb@bruyere.org,15,1 Brown Street,Ottawa,,ON,K1N 5C3,B00325-01,FSA,Elisabeth-Bruyere,5,24-Jun-19,7,Yes,Elisabeth-Bruyere,Bilingual,,1,,,,,Day